{"title":"DPS - Mediation","version":"0.0.1",
 "description":"Interaction between Data Persistence Service and Mediation layer",
 "styles" : {
    "process" : { 
       "shape": { 
          "normal" : {"fill":"gray", "stroke":"gray", "stroke-width":"1"}, 
          "selected" : {"fill":"green", "stroke":"green", "stroke-width":"2"}
       },
       "text": {
          "normal" : {"fill":"white" }
       },
       "icon" : {
          "normal" : { "path" : "M17.41,20.395l-0.778-2.723c0.228-0.2,0.442-0.414,0.644-0.643l2.721,0.778c0.287-0.418,0.534-0.862,0.755-1.323l-2.025-1.96c0.097-0.288,0.181-0.581,0.241-0.883l2.729-0.684c0.02-0.252,0.039-0.505,0.039-0.763s-0.02-0.51-0.039-0.762l-2.729-0.684c-0.061-0.302-0.145-0.595-0.241-0.883l2.026-1.96c-0.222-0.46-0.469-0.905-0.756-1.323l-2.721,0.777c-0.201-0.228-0.416-0.442-0.644-0.643l0.778-2.722c-0.418-0.286-0.863-0.534-1.324-0.755l-1.96,2.026c-0.287-0.097-0.581-0.18-0.883-0.241l-0.683-2.73c-0.253-0.019-0.505-0.039-0.763-0.039s-0.51,0.02-0.762,0.039l-0.684,2.73c-0.302,0.061-0.595,0.144-0.883,0.241l-1.96-2.026C7.048,3.463,6.604,3.71,6.186,3.997l0.778,2.722C6.736,6.919,6.521,7.134,6.321,7.361L3.599,6.583C3.312,7.001,3.065,7.446,2.844,7.907l2.026,1.96c-0.096,0.288-0.18,0.581-0.241,0.883l-2.73,0.684c-0.019,0.252-0.039,0.505-0.039,0.762s0.02,0.51,0.039,0.763l2.73,0.684c0.061,0.302,0.145,0.595,0.241,0.883l-2.026,1.96c0.221,0.46,0.468,0.905,0.755,1.323l2.722-0.778c0.2,0.229,0.415,0.442,0.643,0.643l-0.778,2.723c0.418,0.286,0.863,0.533,1.323,0.755l1.96-2.026c0.288,0.097,0.581,0.181,0.883,0.241l0.684,2.729c0.252,0.02,0.505,0.039,0.763,0.039s0.51-0.02,0.763-0.039l0.683-2.729c0.302-0.061,0.596-0.145,0.883-0.241l1.96,2.026C16.547,20.928,16.992,20.681,17.41,20.395zM11.798,15.594c-1.877,0-3.399-1.522-3.399-3.399s1.522-3.398,3.399-3.398s3.398,1.521,3.398,3.398S13.675,15.594,11.798,15.594zM27.29,22.699c0.019-0.547-0.06-1.104-0.23-1.654l1.244-1.773c-0.188-0.35-0.4-0.682-0.641-0.984l-2.122,0.445c-0.428-0.364-0.915-0.648-1.436-0.851l-0.611-2.079c-0.386-0.068-0.777-0.105-1.173-0.106l-0.974,1.936c-0.279,0.054-0.558,0.128-0.832,0.233c-0.257,0.098-0.497,0.22-0.727,0.353L17.782,17.4c-0.297,0.262-0.568,0.545-0.813,0.852l0.907,1.968c-0.259,0.495-0.437,1.028-0.519,1.585l-1.891,1.06c0.019,0.388,0.076,0.776,0.164,1.165l2.104,0.519c0.231,0.524,0.541,0.993,0.916,1.393l-0.352,2.138c0.32,0.23,0.66,0.428,1.013,0.6l1.715-1.32c0.536,0.141,1.097,0.195,1.662,0.15l1.452,1.607c0.2-0.057,0.399-0.118,0.596-0.193c0.175-0.066,0.34-0.144,0.505-0.223l0.037-2.165c0.455-0.339,0.843-0.747,1.152-1.206l2.161-0.134c0.152-0.359,0.279-0.732,0.368-1.115L27.29,22.699zM23.127,24.706c-1.201,0.458-2.545-0.144-3.004-1.345s0.143-2.546,1.344-3.005c1.201-0.458,2.547,0.144,3.006,1.345C24.931,22.902,24.328,24.247,23.127,24.706z" }
       },
       "drawingClass" : "SmallGroup"
    },
    "server" : {
       "icon" : {
          "normal" : { "path" : "M29.249,3.14h-9.188l-0.459,0.459v18.225l0.33,2.389H19.57v0.245h-0.307v-0.306h-0.611v0.244h-0.311v-0.367h-0.486v0.307h-1.104l-2.022-0.367v-0.92h0.858l0.302-1.47h2.728c0.188,0,0.339-0.152,0.339-0.339V7.828c0-0.187-0.149-0.338-0.339-0.338H1.591c-0.187,0-0.339,0.152-0.339,0.338V21.24c0,0.187,0.152,0.339,0.339,0.339h3.016l0.199,1.47h1.409l-3.4,3.4L2.11,27.951c0,0,2.941,1.102,6.678,1.102c3.737,0,9.679-0.857,10.476-0.857s4.84,0,4.84,0v-1.225l-0.137-1.068h1.744c-0.2,0.106-0.322,0.244-0.322,0.396v0.979c0,0.341,0.604,0.613,1.352,0.613c0.742,0,1.348-0.272,1.348-0.613v-0.979c0-0.339-0.604-0.611-1.348-0.611c-0.188,0-0.364,0.019-0.525,0.049v-0.17h-2.29l-0.055-0.432h5.382L29.249,3.14L29.249,3.14zM2.478,20.17V8.714h15.07V20.17H2.478z" }
       }
    },
    "db" : {
       "icon" : {
          "normal" : { "path" : "M15.499,23.438c-3.846,0-7.708-0.987-9.534-3.117c-0.054,0.236-0.09,0.48-0.09,0.737v3.877c0,3.435,4.988,4.998,9.625,4.998s9.625-1.563,9.625-4.998v-3.877c0-0.258-0.036-0.501-0.09-0.737C23.209,22.451,19.347,23.438,15.499,23.438zM15.499,15.943c-3.846,0-7.708-0.987-9.533-3.117c-0.054,0.236-0.091,0.479-0.091,0.736v3.877c0,3.435,4.988,4.998,9.625,4.998s9.625-1.563,9.625-4.998v-3.877c0-0.257-0.036-0.501-0.09-0.737C23.209,14.956,19.347,15.943,15.499,15.943zM15.5,1.066c-4.637,0-9.625,1.565-9.625,5.001v3.876c0,3.435,4.988,4.998,9.625,4.998s9.625-1.563,9.625-4.998V6.067C25.125,2.632,20.137,1.066,15.5,1.066zM15.5,9.066c-4.211,0-7.625-1.343-7.625-3c0-1.656,3.414-3,7.625-3s7.625,1.344,7.625,3C23.125,7.724,19.711,9.066,15.5,9.066z" }
       },
       "shape" : {
          "normal" : { "shadow": "true" }
       }
    },
    "ear" : {
       "shape" : {
          "normal" : { "fill" : "gray", "stroke" : "gray", "stroke-width" : "0" }
       },
       "text" : {
          "normal" : { "fill" : "white" }
       },
       "icon" : {
          "normal" : { "path" : "M15.5,3.029l-10.8,6.235L4.7,21.735L15.5,27.971l10.8-6.235V9.265L15.5,3.029zM15.5,7.029l6.327,3.652L15.5,14.334l-6.326-3.652L15.5,7.029zM24.988,10.599L16,15.789v10.378c0,0.275-0.225,0.5-0.5,0.5s-0.5-0.225-0.5-0.5V15.786l-8.987-5.188c-0.239-0.138-0.321-0.444-0.183-0.683c0.138-0.238,0.444-0.321,0.683-0.183l8.988,5.189l8.988-5.189c0.238-0.138,0.545-0.055,0.684,0.184C25.309,10.155,25.227,10.461,24.988,10.599z" }
       }
    },
    "jboss-module" : {
       "shape" : {
          "normal" : { "fill" : "gray", "stroke" : "gray", "stroke-width" : "0" }
       },
       "text" : {
          "normal" : { "fill" : "white" }
       },
       "icon" : {
          "normal" : { "path" : "M3.739,13.619c0,0,3.516-4.669,5.592-3.642c2.077,1.027-0.414,2.795,1.598,3.719c2.011,0.924,5.048-0.229,4.376-2.899c-0.672-2.67-1.866-0.776-2.798-2.208c-0.934-1.432,4.586-4.59,4.586-4.59s3.361,6.651,4.316,4.911c1.157-2.105,3.193-4.265,5.305-1.025c0,0,1.814,2.412,0.246,3.434s-2.917,0.443-3.506,1.553c-0.586,1.112,3.784,4.093,3.784,4.093s-2.987,4.81-4.926,3.548c-1.939-1.262,0.356-3.364-2.599-3.989c-1.288-0.23-3.438,0.538-3.818,2.34c-0.13,2.709,1.604,2.016,2.797,3.475c1.191,1.457-4.484,4.522-4.484,4.522s-1.584-3.923-3.811-4.657c-2.227-0.735-0.893,2.135-2.917,2.531c-2.024,0.396-4.816-2.399-3.46-4.789c1.358-2.391,3.275-0.044,3.441-1.951C7.629,16.087,3.739,13.619,3.739,13.619z" }
       }
    }
 },

"entities":[
    {"type":"server", "eId":"ms", "name":"Master Server", "level":"0", "position":"0", "entities" : [
        {"type":"process", "eId":"hyp", "name":"Hyperic Server", "level":"0", "position":"0", 
         "description": "Hyperic is a VMWare product used to monitor HW, Operating System and SW runtime components.", 
         "properties": [
           { "name": "name", "val":"v1" },
           { "name": "another name", "val":"www.jboss.com", "type":"url" }
        ]} 
    ]},

    {"type":"server", "eId":"sc1", "name":"SC1", "level":"0", "position":"1", "entities" : [
        {"type":"process", "eId":"ap", "name":"Apache Web Server", "level":"0", "position":"0" },
        {"type":"process", "eId":"jb-srv", "name":"JBoss OSS Services", "level":"1", "position":"0", "entities": [
           {"type": "ear", "eId":"presS", "name":"Presenttion Service", "level":"0", "position":"0" },
           {"type": "ear", "eId":"pib", "name":"Platform Integration Service", "level":"1", "position":"0" },
           {"type": "ear", "eId":"cmScrip", "name":"CM Script Engine", "level":"2", "position":"0" },
           {"type": "ear", "eId":"cmEd", "name":"CM Editor", "level":"3", "position":"0" },
           {"type": "ear", "eId":"secS", "name":"Security Service", "level":"4", "position":"0" },
           {"type": "ear", "eId":"topCol", "name":"Topology Collection", "level":"5", "position":"0" },
           {"type": "ear", "eId":"apS", "name":"AP Service (BSIM)", "level":"6", "position":"0" },
           {"type": "ear", "eId":"pmic", "name":"PCIM Service", "level":"7", "position":"0" },
           {"type": "ear", "eId":"cmRdr", "name":"CM Reader", "level":"8", "position":"0" },
           {"type": "jboss-module", "eId":"modS", "name":"Model Service", "level":"9", "position":"0" },
           {"type": "jboss-module", "eId":"dpS", "name":"Data Persistence Service", "level":"10", "position":"0" }
        ]},
        {"type":"process", "eId":"jb-med",  "name": "JBoss Mediation", "level":"2", "position":"0", "entities": [
           {"type": "ear", "eId":"cmRdr", "name":"CM Reader", "level":"0", "position":"0" },
           {"type": "ear", "eId":"cmWr", "name":"CM Writer", "level":"1", "position":"0" },
           {"type": "ear", "eId":"medS", "name":"Mediation Service", "level":"2", "position":"0" },
           {"type": "ear", "eId":"medC", "name":"Mediation Core", "level":"3", "position":"0" },
           {"type": "ear", "eId":"cmMed", "name":"CM Mediation", "level":"4", "position":"0" },
           {"type": "ear", "eId":"cml", "name":"Camel Engine", "level":"5", "position":"0" },
           {"type": "jboss-module", "eId":"modS", "name":"Model Service", "level":"6", "position":"0" },
           {"type": "jboss-module", "eId":"dpS", "name":"Data Persistence Service", "level":"7", "position":"0" }
        ]},
        {"type":"db", "eId":"ver",  "name": "Versant", "level":"3", "position":"0" }
    ]},

    {"type":"server", "eId":"sc2", "name":"SC2", "level":"0", "position":"2", "entities" : [
        {"type":"process", "eId":"ap", "name":"Apache Web Server", "level":"0", "position":"0" },
        {"type":"process", "eId":"jb-srv", "name":"JBoss OSS Services", "level":"1", "position":"0" , "entities": [
           {"type": "ear", "eId":"presS", "name":"Presenttion Service", "level":"0", "position":"0" },
           {"type": "ear", "eId":"pib", "name":"Platform Integration Service", "level":"1", "position":"0" },
           {"type": "ear", "eId":"cmScrip", "name":"CM Script Engine", "level":"2", "position":"0" },
           {"type": "ear", "eId":"cmEd", "name":"CM Editor", "level":"3", "position":"0" },
           {"type": "ear", "eId":"secS", "name":"Security Service", "level":"4", "position":"0" },
           {"type": "ear", "eId":"topCol", "name":"Topology Collection", "level":"5", "position":"0" },
           {"type": "ear", "eId":"apS", "name":"AP Service (BSIM)", "level":"6", "position":"0" },
           {"type": "ear", "eId":"pmic", "name":"PCIM Service", "level":"7", "position":"0" },
           {"type": "ear", "eId":"cmRdr", "name":"CM Reader", "level":"8", "position":"0" },
           {"type": "jboss-module", "eId":"modS", "name":"Model Service", "level":"9", "position":"0" },
           {"type": "jboss-module", "eId":"dpS", "name":"Data Persistence Service", "level":"10", "position":"0" }
        ]},
        {"type":"process", "eId":"jb-med",  "name": "JBoss Mediation", "level":"2", "position":"0" , "entities": [
           {"type": "ear", "eId":"cmRdr", "name":"CM Reader", "level":"0", "position":"0" },
           {"type": "ear", "eId":"cmWr", "name":"CM Writer", "level":"1", "position":"0" },
           {"type": "ear", "eId":"medS", "name":"Mediation Service", "level":"2", "position":"0" },
           {"type": "ear", "eId":"medC", "name":"Mediation Core", "level":"3", "position":"0" },
           {"type": "ear", "eId":"cmMed", "name":"CM Mediation", "level":"4", "position":"0" },
           {"type": "ear", "eId":"cml", "name":"Camel Engine", "level":"5", "position":"0" },
           {"type": "jboss-module", "eId":"modS", "name":"Model Service", "level":"6", "position":"0" },
           {"type": "jboss-module", "eId":"dpS", "name":"Data Persistence Service", "level":"7", "position":"0" }
        ]}
    ]}
  ]
}