{"title":"DPS - Mediation","version":"0.0.1",
 "description":"Interaction between Data Persistence Service and Mediation layer",
 "styles" : {
    "module" : { 
       "shape": { 
          "normal" : {"fill":"gray", "stroke":"gray", "stroke-width":"1"}, 
          "selected" : {"fill":"green", "stroke":"green", "stroke-width":"2"}
       },
       "text": {
          "normal" : {"fill":"white" }
       }
    },
    "layer" : {
       "shape": { 
          "normal" : {"fill":"white", "stroke":"white", "stroke-width":"1"}, 
          "selected" : {"fill":"green", "stroke":"green", "stroke-width":"2"}
       },
       "text": {
          "normal" : {"fill":"gray" }
       }
    }
 },
 "actions" : {
    "module":[
        {"name": "get details", "action":"some action"},
        {"name": "another action", "action": "ddd" }
    ],
    "runtime entity" : [
        {"name": "runtime details", "action":"some action"}
    ]
 },

"connections": [
   { "from": "svr", "to": "iDps" },
   { "from": "dps", "to": "imcd" },
   { "from": "dpsmc", "to": "imr" },
   { "from": "dpsmc", "to": "ims" },
   { "from": "meds", "to": "mede" }
],

"flows": [
   { "flow": "Flow involving DPS Mediation client.", "description": "Flow involving DPS Mediation client.", "connections": [
       { "label": "l1", "description": "A Service synchronously invokes DPS.", "cId": "svr-iDps" },
       { "label": "l2", "description": "DPS makes some changes to DB, but also delegates same changes to InfoModelChangeDelegate. Note that delegate operates within same transaction.", "cId": "dps-imcd", "inSyncWith" : "svr-iDps" },
       { "label": "l3", "description": "DPS Mediation Client consults Mediation Router about what Mediation Service instance it should serve the request.", "cId": "dpsmc-imr", "inSyncWith" : "dps-imcd" },
       { "label": "l4", "description": "Delegate changes to Mediation Service.", "cId": "dpsmc-ims", "inSyncWith" : "dps-imcd" },
       { "label": "l5", "description": "Mediation Service passes request to Engine to form (or reuse) a Data Flow.", "cId": "meds-mede", "inSyncWith": "dpsmc-ims" }
   ]}
],

"groups": 
   { "levels": [
       { "from": "0", "to": "0", "name": "Service Layer" }, 
       { "from": "1", "to": "1", "name": "Data Layer" }, 
       { "from": "2", "to": "4", "name": "Mediation Layer" }
   ]},

"entities":[
    {"type":"module", "eId":"svr", "name":"A Service", "level":"0", "position":"1"},
    {"type":"module", "eId":"dps", "name":"Data Persistence Service", "level":"1", "position":"1", "ports": [
       {"type": "interface", "eId": "iDps", "name": "Data Persistence"}
    ]},
    {"type":"module", "eId":"dpsmc", "name":"DPS Med. Client", "level":"2", "position":"1", "ports": [
       {"type": "interface", "eId": "imcd", "name": "Data Access Delegate"}
    ]},
    {"type":"module", "eId":"medr",  "name": "Mediation Router", "level":"3", "position":"0", "ports": [
       {"type": "interface", "eId": "imr", "name": "Route"}
    ]},
    {"type":"module", "eId":"meds",  "name": "Mediation Service", "level":"3", "position":"1", "ports": [
       {"type": "interface", "eId": "ims", "name": "Mediation Service"}
    ]},
    {"type":"module", "eId":"mede",  "name": "Mediation Engine", "level":"4", "position":"1"}
  ]
}
